﻿Código;Descrição;RF-01;RF-02;RF-03;RF-04;RF-05;RF-06;RF-07;RF-08;RF-09;RF-10;RF-11;RF-12;RF-13;RF-14;RF-15
US-01;Como professor posso acessar uma dashboard para verificar quantos acesso teve cada material.;;;;;;;;;;;;;;X;
US-02;Como professor posso acessar uma dashboard para verificar quanto ganharei por cada material publicado.;;;;;;;;;;;;;;;X
US-03;Como aluno posso escolher um curso para ter acesso ao seu conteúdo organizado.;;;;;;;X;;;;;;;;
US-04;Como aluno devo ser recomendado pela IA de acordo com minha performance para ter acesso aos conteúdos mais relevantes de forma customizada.;;;;;;X;;;;;;;;;
